%YAML 1.1
%TAG !u! tag:unity3d.com,2011:
--- !u!1 &4908613070047740442
GameObject:
  m_ObjectHideFlags: 0
  m_CorrespondingSourceObject: {fileID: 0}
  m_PrefabInstance: {fileID: 0}
  m_PrefabAsset: {fileID: 0}
  serializedVersion: 6
  m_Component:
  - component: {fileID: 6046549843906629089}
  - component: {fileID: 2976585852805968386}
  - component: {fileID: 2594521198904195860}
  m_Layer: 5
  m_Name: TextQuestion
  m_TagString: Untagged
  m_Icon: {fileID: 0}
  m_NavMeshLayer: 0
  m_StaticEditorFlags: 0
  m_IsActive: 1
--- !u!224 &6046549843906629089
RectTransform:
  m_ObjectHideFlags: 0
  m_CorrespondingSourceObject: {fileID: 0}
  m_PrefabInstance: {fileID: 0}
  m_PrefabAsset: {fileID: 0}
  m_GameObject: {fileID: 4908613070047740442}
  m_LocalRotation: {x: 0, y: 0, z: 0, w: 1}
  m_LocalPosition: {x: 0, y: 0, z: 0}
  m_LocalScale: {x: 1, y: 1, z: 1}
  m_ConstrainProportionsScale: 0
  m_Children:
  - {fileID: 201769926118486586}
  m_Father: {fileID: 0}
  m_RootOrder: 0
  m_LocalEulerAnglesHint: {x: 0, y: 0, z: 0}
  m_AnchorMin: {x: 0, y: 0}
  m_AnchorMax: {x: 1, y: 1}
  m_AnchoredPosition: {x: -15, y: 15}
  m_SizeDelta: {x: -30, y: -30}
  m_Pivot: {x: 0.5, y: 0.5}
--- !u!222 &2976585852805968386
CanvasRenderer:
  m_ObjectHideFlags: 0
  m_CorrespondingSourceObject: {fileID: 0}
  m_PrefabInstance: {fileID: 0}
  m_PrefabAsset: {fileID: 0}
  m_GameObject: {fileID: 4908613070047740442}
  m_CullTransparentMesh: 1
--- !u!114 &2594521198904195860
MonoBehaviour:
  m_ObjectHideFlags: 0
  m_CorrespondingSourceObject: {fileID: 0}
  m_PrefabInstance: {fileID: 0}
  m_PrefabAsset: {fileID: 0}
  m_GameObject: {fileID: 4908613070047740442}
  m_Enabled: 1
  m_EditorHideFlags: 0
  m_Script: {fileID: 11500000, guid: cd93ddb041defab428a43eddfb60edea, type: 3}
  m_Name: 
  m_EditorClassIdentifier: 
  TextKey: {fileID: 4150437186587810555}
--- !u!1001 &2784734506179410194
PrefabInstance:
  m_ObjectHideFlags: 0
  serializedVersion: 2
  m_Modification:
    m_TransformParent: {fileID: 6046549843906629089}
    m_Modifications:
    - target: {fileID: 2250689199092786153, guid: 049c5738c375c4254879ef88a48046aa,
        type: 3}
      propertyPath: m_text
      value: 'Default Default Default Default Default Default Default Default '
      objectReference: {fileID: 0}
    - target: {fileID: 2250689199092786153, guid: 049c5738c375c4254879ef88a48046aa,
        type: 3}
      propertyPath: m_sharedMaterial
      value: 
      objectReference: {fileID: -8088305349143585257, guid: 15772b5be575e4ff1af863c4edbf6be8,
        type: 2}
    - target: {fileID: 2250689199092786153, guid: 049c5738c375c4254879ef88a48046aa,
        type: 3}
      propertyPath: m_fontColor32.rgba
      value: 4294967295
      objectReference: {fileID: 0}
    - target: {fileID: 2250689199092786153, guid: 049c5738c375c4254879ef88a48046aa,
        type: 3}
      propertyPath: m_VerticalAlignment
      value: 256
      objectReference: {fileID: 0}
    - target: {fileID: 2250689199092786153, guid: 049c5738c375c4254879ef88a48046aa,
        type: 3}
      propertyPath: m_hasFontAssetChanged
      value: 0
      objectReference: {fileID: 0}
    - target: {fileID: 2623779899227147048, guid: 049c5738c375c4254879ef88a48046aa,
        type: 3}
      propertyPath: m_Pivot.x
      value: 0.5
      objectReference: {fileID: 0}
    - target: {fileID: 2623779899227147048, guid: 049c5738c375c4254879ef88a48046aa,
        type: 3}
      propertyPath: m_Pivot.y
      value: 0.5
      objectReference: {fileID: 0}
    - target: {fileID: 2623779899227147048, guid: 049c5738c375c4254879ef88a48046aa,
        type: 3}
      propertyPath: m_RootOrder
      value: 0
      objectReference: {fileID: 0}
    - target: {fileID: 2623779899227147048, guid: 049c5738c375c4254879ef88a48046aa,
        type: 3}
      propertyPath: m_AnchorMax.x
      value: 1
      objectReference: {fileID: 0}
    - target: {fileID: 2623779899227147048, guid: 049c5738c375c4254879ef88a48046aa,
        type: 3}
      propertyPath: m_AnchorMax.y
      value: 1
      objectReference: {fileID: 0}
    - target: {fileID: 2623779899227147048, guid: 049c5738c375c4254879ef88a48046aa,
        type: 3}
      propertyPath: m_AnchorMin.x
      value: 0
      objectReference: {fileID: 0}
    - target: {fileID: 2623779899227147048, guid: 049c5738c375c4254879ef88a48046aa,
        type: 3}
      propertyPath: m_AnchorMin.y
      value: 0
      objectReference: {fileID: 0}
    - target: {fileID: 2623779899227147048, guid: 049c5738c375c4254879ef88a48046aa,
        type: 3}
      propertyPath: m_SizeDelta.x
      value: 0
      objectReference: {fileID: 0}
    - target: {fileID: 2623779899227147048, guid: 049c5738c375c4254879ef88a48046aa,
        type: 3}
      propertyPath: m_SizeDelta.y
      value: 0
      objectReference: {fileID: 0}
    - target: {fileID: 2623779899227147048, guid: 049c5738c375c4254879ef88a48046aa,
        type: 3}
      propertyPath: m_LocalPosition.x
      value: 0
      objectReference: {fileID: 0}
    - target: {fileID: 2623779899227147048, guid: 049c5738c375c4254879ef88a48046aa,
        type: 3}
      propertyPath: m_LocalPosition.y
      value: 0
      objectReference: {fileID: 0}
    - target: {fileID: 2623779899227147048, guid: 049c5738c375c4254879ef88a48046aa,
        type: 3}
      propertyPath: m_LocalPosition.z
      value: 0
      objectReference: {fileID: 0}
    - target: {fileID: 2623779899227147048, guid: 049c5738c375c4254879ef88a48046aa,
        type: 3}
      propertyPath: m_LocalRotation.w
      value: 1
      objectReference: {fileID: 0}
    - target: {fileID: 2623779899227147048, guid: 049c5738c375c4254879ef88a48046aa,
        type: 3}
      propertyPath: m_LocalRotation.x
      value: 0
      objectReference: {fileID: 0}
    - target: {fileID: 2623779899227147048, guid: 049c5738c375c4254879ef88a48046aa,
        type: 3}
      propertyPath: m_LocalRotation.y
      value: 0
      objectReference: {fileID: 0}
    - target: {fileID: 2623779899227147048, guid: 049c5738c375c4254879ef88a48046aa,
        type: 3}
      propertyPath: m_LocalRotation.z
      value: 0
      objectReference: {fileID: 0}
    - target: {fileID: 2623779899227147048, guid: 049c5738c375c4254879ef88a48046aa,
        type: 3}
      propertyPath: m_AnchoredPosition.x
      value: 0
      objectReference: {fileID: 0}
    - target: {fileID: 2623779899227147048, guid: 049c5738c375c4254879ef88a48046aa,
        type: 3}
      propertyPath: m_AnchoredPosition.y
      value: 0
      objectReference: {fileID: 0}
    - target: {fileID: 2623779899227147048, guid: 049c5738c375c4254879ef88a48046aa,
        type: 3}
      propertyPath: m_LocalEulerAnglesHint.x
      value: 0
      objectReference: {fileID: 0}
    - target: {fileID: 2623779899227147048, guid: 049c5738c375c4254879ef88a48046aa,
        type: 3}
      propertyPath: m_LocalEulerAnglesHint.y
      value: 0
      objectReference: {fileID: 0}
    - target: {fileID: 2623779899227147048, guid: 049c5738c375c4254879ef88a48046aa,
        type: 3}
      propertyPath: m_LocalEulerAnglesHint.z
      value: 0
      objectReference: {fileID: 0}
    - target: {fileID: 4063236670330492678, guid: 049c5738c375c4254879ef88a48046aa,
        type: 3}
      propertyPath: m_Name
      value: Text
      objectReference: {fileID: 0}
    m_RemovedComponents: []
  m_SourcePrefab: {fileID: 100100000, guid: 049c5738c375c4254879ef88a48046aa, type: 3}
--- !u!224 &201769926118486586 stripped
RectTransform:
  m_CorrespondingSourceObject: {fileID: 2623779899227147048, guid: 049c5738c375c4254879ef88a48046aa,
    type: 3}
  m_PrefabInstance: {fileID: 2784734506179410194}
  m_PrefabAsset: {fileID: 0}
--- !u!114 &4150437186587810555 stripped
MonoBehaviour:
  m_CorrespondingSourceObject: {fileID: 2250689199092786153, guid: 049c5738c375c4254879ef88a48046aa,
    type: 3}
  m_PrefabInstance: {fileID: 2784734506179410194}
  m_PrefabAsset: {fileID: 0}
  m_GameObject: {fileID: 0}
  m_Enabled: 1
  m_EditorHideFlags: 0
  m_Script: {fileID: 11500000, guid: f4688fdb7df04437aeb418b961361dc5, type: 3}
  m_Name: 
  m_EditorClassIdentifier: 
