%YAML 1.1
%TAG !u! tag:unity3d.com,2011:
--- !u!1001 &6335128715012959099
PrefabInstance:
  m_ObjectHideFlags: 0
  serializedVersion: 2
  m_Modification:
    m_TransformParent: {fileID: 0}
    m_Modifications:
    - target: {fileID: 1102763373100731631, guid: eb71c0f18f917f40986451d8c9b92ca0,
        type: 3}
      propertyPath: Entry
      value: ButtonBack
      objectReference: {fileID: 0}
    - target: {fileID: 1102763373100731631, guid: eb71c0f18f917f40986451d8c9b92ca0,
        type: 3}
      propertyPath: Table
      value: CommonTable
      objectReference: {fileID: 0}
    - target: {fileID: 7479747124825278274, guid: eb71c0f18f917f40986451d8c9b92ca0,
        type: 3}
      propertyPath: m_Name
      value: BaseMenuAcessWindow
      objectReference: {fileID: 0}
    - target: {fileID: 8468276478036632757, guid: eb71c0f18f917f40986451d8c9b92ca0,
        type: 3}
      propertyPath: m_Pivot.x
      value: 0.5
      objectReference: {fileID: 0}
    - target: {fileID: 8468276478036632757, guid: eb71c0f18f917f40986451d8c9b92ca0,
        type: 3}
      propertyPath: m_Pivot.y
      value: 0.5
      objectReference: {fileID: 0}
    - target: {fileID: 8468276478036632757, guid: eb71c0f18f917f40986451d8c9b92ca0,
        type: 3}
      propertyPath: m_RootOrder
      value: 0
      objectReference: {fileID: 0}
    - target: {fileID: 8468276478036632757, guid: eb71c0f18f917f40986451d8c9b92ca0,
        type: 3}
      propertyPath: m_AnchorMax.x
      value: 1
      objectReference: {fileID: 0}
    - target: {fileID: 8468276478036632757, guid: eb71c0f18f917f40986451d8c9b92ca0,
        type: 3}
      propertyPath: m_AnchorMax.y
      value: 1
      objectReference: {fileID: 0}
    - target: {fileID: 8468276478036632757, guid: eb71c0f18f917f40986451d8c9b92ca0,
        type: 3}
      propertyPath: m_AnchorMin.x
      value: 0
      objectReference: {fileID: 0}
    - target: {fileID: 8468276478036632757, guid: eb71c0f18f917f40986451d8c9b92ca0,
        type: 3}
      propertyPath: m_AnchorMin.y
      value: 0
      objectReference: {fileID: 0}
    - target: {fileID: 8468276478036632757, guid: eb71c0f18f917f40986451d8c9b92ca0,
        type: 3}
      propertyPath: m_SizeDelta.x
      value: 0
      objectReference: {fileID: 0}
    - target: {fileID: 8468276478036632757, guid: eb71c0f18f917f40986451d8c9b92ca0,
        type: 3}
      propertyPath: m_SizeDelta.y
      value: 0
      objectReference: {fileID: 0}
    - target: {fileID: 8468276478036632757, guid: eb71c0f18f917f40986451d8c9b92ca0,
        type: 3}
      propertyPath: m_LocalPosition.x
      value: 0
      objectReference: {fileID: 0}
    - target: {fileID: 8468276478036632757, guid: eb71c0f18f917f40986451d8c9b92ca0,
        type: 3}
      propertyPath: m_LocalPosition.y
      value: 0
      objectReference: {fileID: 0}
    - target: {fileID: 8468276478036632757, guid: eb71c0f18f917f40986451d8c9b92ca0,
        type: 3}
      propertyPath: m_LocalPosition.z
      value: 0
      objectReference: {fileID: 0}
    - target: {fileID: 8468276478036632757, guid: eb71c0f18f917f40986451d8c9b92ca0,
        type: 3}
      propertyPath: m_LocalRotation.w
      value: 1
      objectReference: {fileID: 0}
    - target: {fileID: 8468276478036632757, guid: eb71c0f18f917f40986451d8c9b92ca0,
        type: 3}
      propertyPath: m_LocalRotation.x
      value: 0
      objectReference: {fileID: 0}
    - target: {fileID: 8468276478036632757, guid: eb71c0f18f917f40986451d8c9b92ca0,
        type: 3}
      propertyPath: m_LocalRotation.y
      value: 0
      objectReference: {fileID: 0}
    - target: {fileID: 8468276478036632757, guid: eb71c0f18f917f40986451d8c9b92ca0,
        type: 3}
      propertyPath: m_LocalRotation.z
      value: 0
      objectReference: {fileID: 0}
    - target: {fileID: 8468276478036632757, guid: eb71c0f18f917f40986451d8c9b92ca0,
        type: 3}
      propertyPath: m_AnchoredPosition.x
      value: 0
      objectReference: {fileID: 0}
    - target: {fileID: 8468276478036632757, guid: eb71c0f18f917f40986451d8c9b92ca0,
        type: 3}
      propertyPath: m_AnchoredPosition.y
      value: 0
      objectReference: {fileID: 0}
    - target: {fileID: 8468276478036632757, guid: eb71c0f18f917f40986451d8c9b92ca0,
        type: 3}
      propertyPath: m_LocalEulerAnglesHint.x
      value: 0
      objectReference: {fileID: 0}
    - target: {fileID: 8468276478036632757, guid: eb71c0f18f917f40986451d8c9b92ca0,
        type: 3}
      propertyPath: m_LocalEulerAnglesHint.y
      value: 0
      objectReference: {fileID: 0}
    - target: {fileID: 8468276478036632757, guid: eb71c0f18f917f40986451d8c9b92ca0,
        type: 3}
      propertyPath: m_LocalEulerAnglesHint.z
      value: 0
      objectReference: {fileID: 0}
    m_RemovedComponents: []
  m_SourcePrefab: {fileID: 100100000, guid: eb71c0f18f917f40986451d8c9b92ca0, type: 3}
